{
  "teamName": "CORE",
  "dataSources": [{
    "filteredDataName": "Walmart_1234_MWCD_PC_Gum1_All1",
    "dataSourceName": "MWCD_PC_Gum1_All1",
    "dataScopeType": "store",
    "dataScopeId": "Walmart 1234",
    "columns": [{
      "name": "MatchCondition",
      "type": "string"
    },
	{
      "name": "Rank",
      "type": "string"
    },
	{
      "name": "Description",
      "type": "string"
    },
	{
      "name": "Type",
      "type": "string"
    },
	{
      "name": "UPCCode",
      "type": "string"
    },
	{
      "name": "DollarSalesPcntChgYAG",
      "type": "string"
    },
	{
      "name": "ACVWtdDist",
      "type": "string"
    },
	{
      "name": "AvgDollarSalesPerStore",
      "type": "string"
    }
	
	],

    "mockData": [
      { "MatchCondition": "W", "Rank": 1, "Description": "MOCKED, 5 RAIN SPEARMINT GUM STCK IC NS PKG SNGL 15 COUNT 15 CT", "Type": "Single", "UPCCode": "2200000514", "DollarSalesPcntChgYAG": -2.5, "ACVWtdDist": 87.9, "AvgDollarSalesPerStore": 340.14 },
	  { "MatchCondition": "W", "Rank": 2, "Description": "MOCKED, 5 COBALT PEPPERMINT GUM STCK IC NS PKG SNGL 15 COUNT 15 CT", "Type": "Single", "UPCCode": "2200000512", "DollarSalesPcntChgYAG": -5.3, "ACVWtdDist": 87.4, "AvgDollarSalesPerStore": 336.55 },
	  { "MatchCondition": "W", "Rank": 3, "Description": "MOCKED, EXTRA SPEARMINT GUM STCK IC NS PKG SNGL 15 COUNT 15 CT", "Type": "Single", "UPCCode": "2200000899", "DollarSalesPcntChgYAG": 4.0, "ACVWtdDist": 81.7, "AvgDollarSalesPerStore": 276.11 },
	  { "MatchCondition": "W", "Rank": 4, "Description": "MOCKED, TRIDENT SPEARMINT GUM TB IC NS PKG SNGL 18 COUNT 18 CT", "Type": "Single", "UPCCode": "1254661531", "DollarSalesPcntChgYAG": 2.1, "ACVWtdDist": 83.6, "AvgDollarSalesPerStore": 266.61 },
	  { "MatchCondition": "W", "Rank": 5, "Description": "MOCKED, DOUBLEMINT DOUBLEMINT GUM STCK IC NS PKG SNGL 15 COUNT 15 CT", "Type": "Single", "UPCCode": "2200000666", "DollarSalesPcntChgYAG": -2.6, "ACVWtdDist": 85.2, "AvgDollarSalesPerStore": 239.33 }
	 ]
  },

  {
    "filteredDataName": "Walmart_1234_MWCD_SalesBy_All1",
    "dataSourceName": "MWCD_SalesBy_All1",
    "dataScopeType": "store",
    "dataScopeId": "Walmart 1234",
    "columns": [{
      "name": "Category",
      "type": "string"
    },
	{
      "name": "Manufacturer",
      "type": "string"
    },
	{
      "name": "Brand",
      "type": "string"
    },
	{
      "name": "DollarYTD",
      "type": "string"
    },
	{
      "name": "DollarYagoYtd",
      "type": "string"
    },
	{
      "name": "DollarChangeYTD",
      "type": "string"
    }
	],

    "mockData": [
	  {"Category":"Chocolate","Manufacturer":"Hershey","Brand":"MOCKED, 5th Avenue","DollarYTD":"35.1","DollarYagoYtd":"130","DollarChangeYTD":"0.346778"},
	  {"Category":"Chocolate","Manufacturer":"Hershey","Brand":"MOCKED, Hersheys","DollarYTD":"214.88","DollarYagoYtd":"135.2","DollarChangeYTD":"0.589349112"}
    ]
  } ,
  
  {
    "filteredDataName": "SCJ_SuggOrderSelectedFilter",
    "dataSourceName": "SCJ_SuggOrderSelectedFilter",
    "dataScopeType": "store",
    "dataScopeId": "Walmart 1234",
    "columns": [{
      "name": "Value",
      "type": "string"
    },
	{
      "name": "Display",
      "type": "string"
    }
	],

    "mockData": [{ "Value": "", "Display": "All" }, { "Value": "Selected", "Display": "Selected Only" }]
  },
  
  {
    "filteredDataName": "SCJ_DisplayDistribution_Info1",
    "dataSourceName": "SCJ_DisplayDistribution_Info1",
    "dataScopeType": "store",
    "dataScopeId": "Walmart 1234",
    "columns": [{
      "name": "Value",
      "type": "string"
    }
	],

    "mockData": [{ "Source": "Data Source: Retail Link Week Ending 02-14-17" }]
  },
  
  {
    "filteredDataName": "SCJ_DisplayDistribution_All1",
    "dataSourceName": "SCJ_DisplayDistribution_All1",
    "dataScopeType": "store",
    "dataScopeId": "Walmart 1234",
    "columns": [{
      "name": "Displays",
      "type": "string"
    },
	{
      "name": "ArrivalDate",
      "type": "string"
    },	
    {
      "name": "Qty",
      "type": "string"
    }
	],

    "mockData": [{ "Displays": "D13 Galde Atmosphere Spring TV End Cap", "ArrivalDate": "2/20/2017", "Qty": 1 }, { "Displays": "D13 Galde Atmosphere Spring TV End Cap", "ArrivalDate": "2/20/2017", "Qty": 1 }, { "Displays": "D13 Galde Atmosphere Spring TV End Cap", "ArrivalDate": "2/20/2017", "Qty": 1 }, { "Displays": "D13 Galde Atmosphere Spring TV End Cap", "ArrivalDate": "2/20/2017", "Qty": 1 }, { "Displays": "D13 Galde Atmosphere Spring TV End Cap", "ArrivalDate": "2/20/2017", "Qty": 1 }, { "Displays": "D13 Galde Atmosphere Spring TV End Cap", "ArrivalDate": "2/20/2017", "Qty": 1 }, { "Displays": "D13 Galde Atmosphere Spring TV End Cap", "ArrivalDate": "2/20/2017", "Qty": 1 }, { "Displays": "D13 Galde Atmosphere Spring TV End Cap", "ArrivalDate": "2/20/2017", "Qty": 1 }, { "Displays": "D13 Galde Atmosphere Spring TV End Cap", "ArrivalDate": "2/20/2017", "Qty": 1 }, { "Displays": "D13 Galde Atmosphere Spring TV End Cap", "ArrivalDate": "2/20/2017", "Qty": 1 }, { "Displays": "D13 Glade 216ct  3ct PISO Half Pallet", "ArrivalDate": "1/30/2017", "Qty": 1 }, { "Displays": "Windex- Scrubbing Bubbles Spring Train 1/2 Pallet Mix", "ArrivalDate": "2/13-3/13", "Qty": 1 }]
  },

  {
    "filteredDataName": "SCJ_SSOOff_All1",
    "dataSourceName": "SCJ_SSOOff_All1",
    "dataScopeType": "store",
    "dataScopeId": "Walmart 1234",
    "columns": [{
      "name": "City",
      "type": "string"
    },
	{
      "name": "Pallet1",
      "type": "string"
    },
	{
      "name": "Pallet2",
      "type": "string"
    },
	{
      "name": "Pallet3",
      "type": "string"
    },
	{
      "name": "Pallet4",
      "type": "string"
    },
	{
      "name": "Pallet5",
      "type": "string"
    },
	{
      "name": "Pallet6",
      "type": "string"
    },
	{
      "name": "Pallet7",
      "type": "string"
    },
    {
        "name": "Pallet8",
        "type": "string"
      },
    {
        "name": "Pallet9",
        "type": "string"
      },
    {
        "name": "Pallet10",
        "type": "string"
      }
    	
	],

    "mockData": [{ "City": "Altamonte Springs", "Pallet1": 0, "Pallet2": 0, "Pallet3": 1, "Pallet4": 1, "Pallet5": 1, "Pallet6": 0, "Pallet7": "", "Pallet8": "", "Pallet9": "", "Pallet10": "" },{ "City": "Altamonte Springs", "Pallet1": 1, "Pallet2": 0, "Pallet3": 0, "Pallet4": "", "Pallet5": "", "Pallet6": "", "Pallet7": "", "Pallet8": "", "Pallet9": "", "Pallet10": "" },{ "City": "Altamonte Springs", "Pallet1": "", "Pallet2": "", "Pallet3": 0, "Pallet4": "", "Pallet5": "", "Pallet6": "", "Pallet7": "", "Pallet8": "", "Pallet9": "", "Pallet10": "" }]
  },

  {
    "filteredDataName": "SCJ_SSOOff_All1_Info1",
    "dataSourceName": "SCJ_SSOOff_All1_Info1",
    "dataScopeType": "store",
    "dataScopeId": "Walmart 1234",
    "columns": [{
      "name": "Source",
      "type": "string"
    }
	],

    "mockData": [{ "Source": "Retail Link - 9/27/2016" }]
  },

  {
    "filteredDataName": "SCJ_SSOOff_All1",
    "dataSourceName": "SCJ_SSOOff_All1",
    "dataScopeType": "store",
    "dataScopeId": "Walmart 1234",
    "columns": [{
      "name": "Pallet1",
      "type": "string"
    },
	{
      "name": "Pallet2",
      "type": "string"
    },
	{
      "name": "Pallet3",
      "type": "string"
    },
	{
      "name": "Pallet4",
      "type": "string"
    },
	{
      "name": "Pallet5",
      "type": "string"
    },
	{
      "name": "Pallet6",
      "type": "string"
    },
	{
      "name": "Pallet7",
      "type": "string"
    },
    {
        "name": "Pallet8",
        "type": "string"
      },
    {
        "name": "Pallet9",
        "type": "string"
      },
    {
        "name": "Pallet10",
        "type": "string"
      }
    	
	],

    "mockData": [{"Pallet1":1,"Pallet2":"","Pallet3":"","Pallet4":"","Pallet5":"","Pallet6":"","Pallet7":"","Pallet8":"","Pallet9":"","Pallet10":""},{"Pallet1":0,"Pallet2":"","Pallet3":"","Pallet4":"","Pallet5":"","Pallet6":"","Pallet7":"","Pallet8":"","Pallet9":"","Pallet10":""}]
  },

  {
    "filteredDataName": "SCJ_SSOGlade_Info1",
    "dataSourceName": "SCJ_SSOGlade_Info1",
    "dataScopeType": "store",
    "dataScopeId": "Walmart 1234",
    "columns": [{
      "name": "Source",
      "type": "string"
    },
    {
      "name": "LastUpdated",
      "type": "string"
    }
	],

    "mockData": [{"Source":"HyVee 2016 Data","LastUpdated":"6/29/2017"}]
  },

  {
    "filteredDataName": "SCJ_SSOGlade_Price_All1",
    "dataSourceName": "SCJ_SSOGlade_Price_All1",
    "dataScopeType": "store",
    "dataScopeId": "Walmart 1234",
    "columns": [{
      "name": "key",
      "type": "string"
    },
    {
      "name": "retail",
      "type": "string"
    },
    {
      "name": "profit",
      "type": "string"
    },
    {
      "name": "value",
      "type": "string"
    }
	],

    "mockData": [{ "key": "Glade Fall Candle and PISO Display", "retail": "155.48", "profit": "56.24", "value": "" }]
  },

  {
    "filteredDataName": "SCJ_SuperValue_Price_All1",
    "dataSourceName": "SCJ_SuperValue_Price_All1",
    "dataScopeType": "store",
    "dataScopeId": "Walmart 1234",
    "columns": [{
      "name": "key",
      "type": "string"
    },
    {
      "name": "retail",
      "type": "string"
    },
    {
      "name": "profit",
      "type": "string"
    }
	],

    "mockData": [{ "key": "Ziploc Holiday Freezer/Storage 4 Core Display", "retail": "287.04", "profit": "94.75" }, { "key": "Ziploc Holiday Freezer/Storage Valu Bag Display", "retail": "233.48", "profit": "66.44" }, { "key": "Ziploc Holiday Container Display", "retail": "225", "profit": "74.81" }, { "key": "Ziploc Holiday Storage Slider Bag Display", "retail": "128", "profit": "37.15" }, { "key": "Glade Holiday Solid/Aero Display", "retail": "203.4", "profit": "156.93" }, { "key": "Glade Holiday Candles-Wax-PISO Display", "retail": "183.06", "profit": "68.1" }]
  },

  {
    "filteredDataName": "SCJ_SSOSuperValu_All1",
    "dataSourceName": "SCJ_SSOSuperValu_All1",
    "dataScopeType": "store",
    "dataScopeId": "Walmart 1234",
    "columns": [{
      "name": "Display1",
      "type": "string"
    },
    {
      "name": "Display2",
      "type": "string"
    },
    {
      "name": "Display3",
      "type": "string"
    },
    {
      "name": "Display4",
      "type": "string"
    },
    {
      "name": "Display5",
      "type": "string"
    },
    {
      "name": "Display6",
      "type": "string"
    }
	],

    "mockData": [{ "Display1": 3, "Display2": 2, "Display3": 2, "Display4": 4, "Display5": 2, "Display6": 2 }]
  },

  {
    "filteredDataName": "SCJ_SSOSuperValu_Info1",
    "dataSourceName": "SCJ_SSOSuperValu_Info1",
    "dataScopeType": "store",
    "dataScopeId": "Walmart 1234",
    "columns": [{
      "name": "Source",
      "type": "string"
    }
	],

    "mockData":  [{ "Source": "Last Updated: 09/01/17" }]
  },

  {
    "filteredDataName": "SCJ_FoodDisplayDistribution_All",
    "dataSourceName": "SCJ_FoodDisplayDistribution_All",
    "dataScopeType": "store",
    "dataScopeId": "Walmart 1234",
    "columns": [{
      "name": "Displays",
      "type": "string"
    },
    {
      "name": "ArrivalDate",
      "type": "string"
    },
    {
      "name": "Qty",
      "type": "string"
    }
	],

    "mockData":  [{ "Displays": "16PCZPLC BTS SAND SN", "ArrivalDate": "8/7/2017", "Qty": 1 }, { "Displays": "Glade 3ct Oil Half Pallet", "ArrivalDate": "8/3/2017", "Qty": 1 }, { "Displays": "Ziploc BTS Sandwich PDQ", "ArrivalDate": "8/7/2017", "Qty": 1 }, { "Displays": "Ziploc BTS 160pc Backpack", "ArrivalDate": "8/3/2017", "Qty": 5 }, { "Displays": "Glade September ECTV", "ArrivalDate": "8/21/2017", "Qty": 1 }, { "Displays": "September Candle Wax Half Pallet", "ArrivalDate": "8/21/2017", "Qty": 1 }, { "Displays": "Ziploc Holiday", "ArrivalDate": "10/9/2017", "Qty": 1 }, { "Displays": "Ziploc Holiday", "ArrivalDate": "10/23/2017", "Qty": 1 }, { "Displays": "Glade Oct $4.88 Half Pallet", "ArrivalDate": "9/25/2017", "Qty": 1 }]
  },

  {
    "filteredDataName": "SCJ_FoodDisplayDistribution_Info1",
    "dataSourceName": "SCJ_FoodDisplayDistribution_Info1",
    "dataScopeType": "store",
    "dataScopeId": "Walmart 1234",
    "columns": [{
      "name": "Source",
      "type": "string"
    }
	],

    "mockData":  [{ "Source": "Last Updated: 09/01/17" }]
  },

  {
    "filteredDataName": "SCJ_FSIFOOD_All1",
    "dataSourceName": "SCJ_FSIFOOD_All1",
    "dataScopeType": "store",
    "dataScopeId": "Walmart 1234",
    "columns": [{
      "name": "Store",
      "type": "string"
    },
    {
      "name": "StartDate",
      "type": "string"
    },
    {
      "name": "EndDate",
      "type": "string"
    },
    {
      "name": "Description",
      "type": "string"
    },
    {
      "name": "Value",
      "type": "string"
    }
	],

    "mockData":  [{"Store":"Glade","StartDate":"10/15/2017","EndDate":"","Description":"Atmosphere Collection Product","Value":"$1/1"},{"Store":"Glade","StartDate":"10/15/2017","EndDate":"","Description":"Plugins Car Starter Kit","Value":"$1.5/1"},{"Store":"Glade","StartDate":"10/15/2017","EndDate":"","Description":"Glade Products (excludes Glade PlugIns Warmers, 8 oz. Room Sprays and Solid Air Fresheners)","Value":"$1/2"},{"Store":"Glade","StartDate":"10/15/2017","EndDate":"","Description":"Glade PlugIns Warmers, 8 oz. Room Sprays and Solid Air Fresheners","Value":"$2/3"},{"Store":"Glade","StartDate":"10/29/2017","EndDate":"11/4/2017","Description":"Car Starter Kit (Any)","Value":"$1.5/1"},{"Store":"Glade","StartDate":"10/29/2017","EndDate":"11/4/2017","Description":"Car Refills (Any)","Value":"$1/2"},{"Store":"Glade","StartDate":"10/29/2017","EndDate":"11/4/2017","Description":"(Any Every Day Home)","Value":"$2/3"},{"Store":"Glade","StartDate":"10/29/2017","EndDate":"11/4/2017","Description":"(Any Every Day Home)","Value":"$1/2"},{"Store":"Windex","StartDate":"10/29/2017","EndDate":"11/18/2017","Description":"Coupons.com","Value":"$0.5/1"},{"Store":"Shout","StartDate":"10/29/2017","EndDate":"11/18/2017","Description":"(Any) Coupons.com","Value":"$0.5/1"},{"Store":"Pledge","StartDate":"10/29/2017","EndDate":"11/18/2017","Description":"(Any Furniture) Coupons.com","Value":"$0.5/1"},{"Store":"Scrubbing Bubbles","StartDate":"10/29/2017","EndDate":"11/18/2017","Description":"Bath Coupons.com","Value":"$0.5/1"},{"Store":"Scrubbing Bubbles","StartDate":"10/29/2017","EndDate":"11/18/2017","Description":"Toilet Coupons.com","Value":"$0.75/1"},{"Store":"Drano","StartDate":"10/29/2017","EndDate":"11/18/2017","Description":"Coupons.com","Value":"$0.5/1"},{"Store":"fantastik","StartDate":"10/29/2017","EndDate":"11/18/2017","Description":"Coupons.com","Value":"$0.5/1"},{"Store":"Ziploc","StartDate":"10/29/2017","EndDate":"11/25/2017","Description":"Bags (Any) Coupons.com","Value":"$1/2"},{"Store":"Ziploc","StartDate":"10/29/2017","EndDate":"11/25/2017","Description":"Containers (Any) Coupons.com","Value":"$1/2"},{"Store":"Windex","StartDate":"10/29/2017","EndDate":"11/18/2017","Description":"Coupons.com","Value":"$0.5/1"},{"Store":"Windex","StartDate":"10/29/2017","EndDate":"11/18/2017","Description":"Coupons.com","Value":"$1.5/2"},{"Store":"Scrubbing Bubbles","StartDate":"10/29/2017","EndDate":"11/18/2017","Description":"Toilet Coupons.com","Value":"$2.50/2"},{"Store":"Ziploc","StartDate":"11/1/2017","EndDate":"","Description":"Ziploc Brand Bags","Value":"$1/2"},{"Store":"Ziploc","StartDate":"11/1/2017","EndDate":"","Description":"Ziploc Brand Containers","Value":"$1/2"},{"Store":"Glade","StartDate":"11/5/2017","EndDate":"11/18/2017","Description":"Car Starter Kit (Any)","Value":"$1.5/1"},{"Store":"Glade","StartDate":"11/5/2017","EndDate":"11/18/2017","Description":"Car Refills (Any)","Value":"$1/2"},{"Store":"Glade","StartDate":"11/5/2017","EndDate":"11/18/2017","Description":"(Any Fall Seasonal)","Value":"$1/2"},{"Store":"Glade","StartDate":"11/5/2017","EndDate":"11/18/2017","Description":"(Any Fall Seasonal)","Value":"$2/3"},{"Store":"Glade","StartDate":"11/5/2017","EndDate":"11/18/2017","Description":"Atmosphere Collection (Any) Quotient Network","Value":"$1/1"},{"Store":"Kiwi","StartDate":"11/5/2017","EndDate":"2/3/2018","Description":"Cleaners (Any) Coupons.com","Value":"$2/1"},{"Store":"Kiwi","StartDate":"11/5/2017","EndDate":"2/3/2018","Description":"Protectors (Any) Coupons.com","Value":"$2/1"},{"Store":"Glade","StartDate":"11/12/2017","EndDate":"","Description":"Car Starter Kit","Value":"$1.5/1"},{"Store":"Glade","StartDate":"11/12/2017","EndDate":"","Description":"Car Refills","Value":"$1/2"},{"Store":"Glade","StartDate":"11/12/2017","EndDate":"","Description":"(Any)","Value":"$1/2"},{"Store":"Glade","StartDate":"11/12/2017","EndDate":"","Description":"(Any)","Value":"$2/3"},{"Store":"Glade","StartDate":"11/12/2017","EndDate":"","Description":"Atmosphere Collection (Any)","Value":"$1/1"},{"Store":"Ziploc","StartDate":"11/12/2017","EndDate":"","Description":"(Any)","Value":"$1/1"},{"Store":"Windex","StartDate":"11/12/2017","EndDate":"","Description":"Windex?, fantastik?, Shout? (Any)","Value":"$0.5/1"},{"Store":"Drano","StartDate":"11/12/2017","EndDate":"","Description":"(Any)","Value":"$0.75/1"},{"Store":"Scrubbing Bubbles","StartDate":"11/12/2017","EndDate":"","Description":"Bath","Value":"$0.5/1"},{"Store":"Scrubbing Bubbles","StartDate":"11/12/2017","EndDate":"","Description":"Toilet","Value":"$1/1"},{"Store":"Glade","StartDate":"11/12/2017","EndDate":"","Description":"(Any - Excludes Plug-Ins Warmers, 8oz Aerosols & Solids)","Value":"$2/3"},{"Store":"Glade","StartDate":"11/12/2017","EndDate":"","Description":"(Any) Large Auto Refills and Sense & Spray Refills","Value":"$1/2"},{"Store":"Glade","StartDate":"11/12/2017","EndDate":"","Description":"PISO Twin Pack Refills","Value":"$1/1"},{"Store":"Glade","StartDate":"11/12/2017","EndDate":"","Description":"PISO, Candles and Wax Melts","Value":"$1/2"},{"Store":"Scrubbing Bubbles","StartDate":"11/19/2017","EndDate":"12/9/2017","Description":"Bath Coupons.com","Value":"$0.5/1"},{"Store":"Scrubbing Bubbles","StartDate":"11/19/2017","EndDate":"12/9/2017","Description":"Toilet Coupons.com","Value":"$1/1"},{"Store":"Windex","StartDate":"11/19/2017","EndDate":"12/9/2017","Description":"(Any) Coupons.com","Value":"$0.5/1"},{"Store":"Drano","StartDate":"11/19/2017","EndDate":"1/6/2018","Description":"Coupons.com","Value":"$0.5/1"},{"Store":"Drano","StartDate":"11/19/2017","EndDate":"12/24/2017","Description":"Coupons.com","Value":"$0.5/1"},{"Store":"Windex","StartDate":"11/19/2017","EndDate":"12/24/2017","Description":"(Excludes Trial & Travel Sizes) Coupons.com","Value":"$0.5/1"},{"Store":"Ziploc","StartDate":"12/1/2017","EndDate":"","Description":"Ziploc Brand Bags","Value":"$1/2"},{"Store":"Ziploc","StartDate":"12/1/2017","EndDate":"","Description":"Ziploc Brand Containers","Value":"$1/2"},{"Store":"Drano","StartDate":"12/3/2017","EndDate":"","Description":"(Any)","Value":"$1/1"},{"Store":"Glade","StartDate":"12/10/2017","EndDate":"","Description":"Atmosphere Collection (Any)","Value":"$1/1"},{"Store":"Glade","StartDate":"12/10/2017","EndDate":"","Description":"Car Starter Kit","Value":"$1.5/1"},{"Store":"Glade","StartDate":"12/10/2017","EndDate":"","Description":"Car Refills","Value":"$1/2"},{"Store":"Glade","StartDate":"12/10/2017","EndDate":"","Description":"Large Auto Refills and Sense & Spray Refills (Any)","Value":"$1/2"},{"Store":"Glade","StartDate":"12/10/2017","EndDate":"","Description":"PISO, Candles and Wax Melts","Value":"$1/2"},{"Store":"Glade","StartDate":"12/10/2017","EndDate":"","Description":"(Any - Excludes Plug-Ins Warmers, 8oz Aerosols & Solids)","Value":"$2/3"},{"Store":"Ziploc","StartDate":"12/10/2017","EndDate":"","Description":"Bags (Any) or Containers (Any)","Value":"$1/2"}]
  },

  {
    "filteredDataName": "SCJ_FSIFOOD_Info1",
    "dataSourceName": "SCJ_FSIFOOD_Info1",
    "dataScopeType": "store",
    "dataScopeId": "Walmart 1234",
    "columns": [{
      "name": "Source",
      "type": "string"
    }
	],

    "mockData":  [{ "Source": "Last updated 11/01/17" }]
  },

  {
    "filteredDataName": "SCJ_FSIFOOD_All1_SelectedFilter",
    "dataSourceName": "SCJ_FSIFOOD_All1_SelectedFilter",
    "dataScopeType": "store",
    "dataScopeId": "Walmart 1234",
    "columns": [{
      "name": "Value",
      "type": "string"
    },
    {
      "name": "Display",
      "type": "string"
    }
	],

    "mockData":  [{ "Value": "", "Display": "All" }, { "Value": "Selected", "Display": "Selected Only" }]
  }

  ]
}